<?xml version="1.0" encoding="utf-8"?>
<!-- Generator: Adobe Illustrator 24.2.1, SVG Export Plug-In . SVG Version: 6.00 Build 0)  -->
<svg version="1.1" id="Layer_1" xmlns="http://www.w3.org/2000/svg" xmlns:xlink="http://www.w3.org/1999/xlink" x="0px" y="0px"
	 viewBox="0 0 520.3 161.9" enable-background="new 0 0 520.3 161.9" xml:space="preserve">
<path opacity="4.000000e-02" d="M23.9,26.5C41.3,17.2,61.4,4.8,61.4,4.8S75.6-5,92.8,4.1s46.7,25.8,46.7,25.8s7.1,3.7,10.1,6.6
	s4.1,6.2,4.1,13.5v62.5c0,0,0.3,10.7-6.5,14.6C140.3,131,91,158,91,158s-8.5,6.1-21.8,1.5c-44.4-24.4-54.8-30.1-54.8-30.1
	s-12-4-12.2-24.1s0.1-38.7,0.1-54.5C2.2,36.5,6.4,35.8,23.9,26.5"/>
<path opacity="4.000000e-02" d="M153.7,67l0.1-16.9c0-2.8-0.1-6.4-0.9-8.3c-1.6,3.6-21.3,10.5-55.5,28.6c-4.5,2.4-13.1,6.6-18.1,9.3
	c-0.5,4.3-0.6,13.2-0.7,24.2v1.5c0,17.3,0.3,39.1,0.1,55.9c9,0.1,13.8-4.4,23.4-9.4c7-4,37.5-20.4,40.2-22c6-3.7,11.4-4.2,11.5-21.3
	v-0.4c0-0.8,0-1.6,0-2.5C153.7,83.6,153.7,67,153.7,67z"/>
<path opacity="8.000000e-02" d="M23.9,26.5C41.3,17.2,61.4,4.8,61.4,4.8S75.6-5,92.8,4.1s46.7,25.8,46.7,25.8s7.1,3.7,10.1,6.6
	c1.5,1.4,2.6,3.2,3.2,5.2c0.6,1.8-21.3,11.3-58.2,30c-4.9,2.5-10,5.1-15.4,7.9c-3.7-1.8-12.1-6.2-15.4-7.9
	C21.1,50.3,4.6,42.8,5.7,40.5C8.2,35.2,12.1,32.8,23.9,26.5"/>
<path d="M129.2,115.3v7.2l8.7-4.8v-7.2L129.2,115.3z"/>
<path d="M106.1,135.2l17.5-9.7c1.6-0.9,2.6-2.7,1.7-4.3c-0.9-1.6-2.8-2.2-4.4-1.3l-18,9.9c-1.6,0.9-2.3,2.8-1.4,4.3
	S104.5,136,106.1,135.2"/>
<path d="M145.9,113.3c0,0,5.4-2.9,7.8-4.3c0-2.5,0-4.8,0-7.2l-11,6c-1.6,0.9-2.1,2.8-1.3,4.4C142.3,113.9,144.4,114.2,145.9,113.3"
	/>
<path d="M138.5,95.7v7.1l8.7-4.8v-7.2L138.5,95.7z"/>
<path d="M97.2,118.4v7.2l8.7-4.8v-7.2L97.2,118.4z"/>
<path d="M114.5,116.1l16.2-8.9c1.6-0.8,2.3-2.7,1.4-4.3s-2.8-2.1-4.4-1.2l-16.3,8.8c-1.6,0.8-2.2,2.8-1.3,4.4
	C110.9,116.5,112.9,116.9,114.5,116.1"/>
<path d="M153.7,87.4c-1.6,0.8-3.1,3.7-2.3,5.3c0.5,0.9,1.3,1.6,2.3,1.8V87.4z"/>
<path d="M114.6,95.1v7.2l8.7-4.8v-7.2L114.6,95.1z"/>
<path d="M133.1,92.1c0,0,13.6-7.5,20.6-11.3c0-3.5,0-4,0-7.1c-8.7,4.8-23.3,12.8-23.3,12.8c-1.6,0.8-2.5,2.7-1.7,4.3
	C129.5,92.4,131.5,92.9,133.1,92.1"/>
<path d="M102.1,109.1l6.2-3.4c1.6-0.8,2.5-2.9,1.7-4.5s-2.8-2-4.4-1.2l-6.5,3.6c-1.6,0.8-2.4,2.8-1.7,4.4
	C98.3,109.6,100.5,109.8,102.1,109.1"/>
<path d="M132.7,71.3v7.2l8.7-4.8v-7.2L132.7,71.3z"/>
<path d="M145,64.6v7.1l8.6-4.7v-7.2L145,64.6z"/>
<path d="M112.8,89.6l13.8-7.7c1.5-0.7,2.2-2.6,1.4-4.1c0,0,0-0.1-0.1-0.1c-0.8-1.6-3.1-1.9-4.7-1.1l-13.3,7.3
	c-1.6,0.8-2.3,2.7-1.5,4.3C109.2,89.8,111.2,90.4,112.8,89.6"/>
<path d="M93.6,100l10-5.5c1.6-0.8,2.3-2.6,1.5-4.2s-2.8-2.2-4.4-1.3l-9.6,5.2c-1.6,0.8-3,2.4-2.1,4.4S92,100.8,93.6,100"/>
<path d="M74.9,118.8c1.3,0.7,2.2,1.2,3.8,1.6c0-3.8,0-25.9,0-30C56.1,80,5.4,51.9,0,48.7v29.7C40.8,100.4,74.9,118.8,74.9,118.8"/>
<path d="M74.9,118.8c1.3,0.7,2.2,1.2,3.8,1.6c0-3.8,0-25.9,0-30C56.1,80,5.4,51.9,0,48.7v29.7C40.8,100.4,74.9,118.8,74.9,118.8"/>
<path fill-rule="evenodd" clip-rule="evenodd" d="M270,56.2v37.7c0,5.8,0,11.5,0,17.3c0,5.1-1.2,6.2-6.4,6.3c-3.7,0-7.4,0.1-11.1,0
	c-4.6-0.1-5.8-1.2-5.8-6c-0.1-13.4,0-26.8,0-40.2c0-1.4,0-2.9,0-4.3c-0.2-8.3-4-12-12.3-12c-9.2,0-9.5,0.3-9.5,9.4v43.6
	c0,9.4-0.1,9.5-9.2,9.5c-2.7,0-5.4,0-8.1,0c-4.9-0.1-6.1-1.3-6.1-6.6c0-20,0-40,0-60c0-1.3,0-2.6,0-3.9c0-3.6,1.6-6,4.9-7.3
	c16.1-6.4,32.3-9.1,49.1-2.7c1.3,0.5,3.1,0.2,4.5-0.2c9.8-3.1,19.9-3.8,30.1-2.9c15.4,1.4,24.9,12,25.3,29
	c0.4,16.4,0.1,32.8,0.1,49.2c0,3.8-1.8,5.6-5.5,5.5c-3.9,0-7.7,0-11.6,0c-5.4-0.1-6.5-1.1-6.5-6.7c-0.1-10.2,0-20.4,0-30.7
	c0-2.9-0.2-5.8,0-8.6c1-15.5-5.8-18.3-19.7-15.7C271.3,55.9,270.4,56.1,270,56.2"/>
<path fill-rule="evenodd" clip-rule="evenodd" d="M434.8,55.2v31.3c0,12.3,0.4,12.8,12.9,11.9c0.3,0,0.6,0,0.9-0.1
	c6.8-0.8,10.6-4.7,10.8-11.6c0.2-7.2,0.1-14.4,0-21.6c-0.1-5.2-2.8-9.2-7.8-9.8C446.2,54.6,440.7,55.2,434.8,55.2 M434.8,34.5
	c3.2-0.4,6-1,8.8-0.9c5.6,0.1,11.2-0.1,16.6,0.9c12.9,2.3,21.3,11.1,22.2,24.3c0.8,11.4,0.7,23-0.1,34.5c-0.9,12.7-9.6,22-22.1,24.8
	c-14.3,3.2-28.4,1.8-42.1-3.3c-5.9-2.2-6.8-3.7-6.8-9.9c0-32.2,0-64.5,0-96.8c0-6.1,1.1-7.2,7.3-7.2c3.4,0,6.9,0,10.3,0
	c4,0,6,1.8,5.9,6c-0.1,7.5,0,15,0,22.5L434.8,34.5z"/>
<path fill-rule="evenodd" clip-rule="evenodd" d="M373.8,86.3c-6.2,0-11.9-0.3-17.5,0.1c-4.3,0.3-6.3,3.1-6.3,7.2
	c0,4.3,2.1,7,6.7,7.3c4.8,0.3,9.7,0.2,14.5-0.1c1-0.1,2.5-1.8,2.6-2.8C374,94.3,373.8,90.6,373.8,86.3 M373.4,67.9
	c1-7.3-0.5-11.6-5.3-13.7c-5.6-2.5-14.2-0.8-18.2,3.7c-4.8,5.3-4.8,5.3-11.5,2.5c-1.8-0.8-3.7-1.5-5.5-2.3c-5.4-2.4-6-4.5-2.9-9.7
	c3.9-6.5,9.6-10.6,16.6-12.8c9.9-3,19.9-3.1,30-0.6c11.7,3,19,10.8,19.9,22.6c1.2,16.9,0.8,33.9,0.9,50.9c0,3.8-2.6,5.8-5.9,7.1
	c-8.9,3.6-18.4,4.3-27.8,4.1c-7.9-0.2-15.9-1.3-23.6-3.2c-7.3-1.8-11.8-7.4-12.9-15.1c-0.6-4.2-0.9-8.6-0.5-12.8
	c1.4-11.8,8.4-18,21.9-19.4C356.8,68.3,364.9,68.3,373.4,67.9"/>
<path fill-rule="evenodd" clip-rule="evenodd" d="M520.3,59.3c0,17,0,34,0,51c0,6-1,7.1-6.9,7.1c-3,0-6,0-9,0
	c-6.7,0-7.5-0.8-7.5-7.4c0-14.7,0-29.4,0-44.1c0-19.3,0-38.6,0-57.9c0-6,1.1-7.1,6.9-7.2c3.1-0.1,6.3,0,9.4,0c5.9,0,7,1.2,7.1,7
	C520.3,25.1,520.3,42.2,520.3,59.3"/>
<path d="M74.7,133.6c0.6,0.3,3.5,1.9,4,2.1c4.4-2.4,12.8-7,12.8-7c2-1.3,2.3-2.9,1.4-4.4c-0.9-1.5-2.8-1.9-4.4-1.1
	c0,0-6.4,3.5-9.8,5.4c-2-1.1-3.1-1.8-3.1-1.8c-2.1-0.7-3.4,0.2-3.9,1.5C70.8,130.4,71.7,131.9,74.7,133.6"/>
<path d="M95.8,140.9c1.6-0.6,2.4-2.5,1.8-4.1c0-0.1-0.1-0.2-0.1-0.3c-0.9-1.6-2.8-2.1-4.4-1.3l-15.4,8.5l2.7,0.2l-13-7.1
	c-3.9-2-6.7,3.6-2.8,5.6l12.5,6.9c1.9,1.1,2.5,0.6,3.3,0.2C80.2,149.4,94.9,141.5,95.8,140.9"/>
<path d="M78.7,120.4c5.8,0.5,16.5-7.2,19.1-12.4c2.6-5.2,3.2-11,0-14.5c-3.3-3.5-6.1-4.2-9.5-4.6c-3.4-0.3-8,0.9-9.6,1.4L78.7,120.4
	z"/>
</svg>
